DARLEQ3
…
#> ✔ Setting active project to '/home/pop/Documents/projects/hera'
#> ✔ Saving 'catalogue' to 'data/catalogue.rda'
#> • Document your data (see 'https://r-pkgs.org/data.html')

Test

This section tests if this assessment is usable using
assessment function.

#> Hello from hera, ...work in progress!
#> Hello from hera, ...work in progress!
#> Warning in showSRID(uprojargs, format = "PROJ", multiline = "NO", prefer_proj =
#> prefer_proj): Discarded datum OSGB_1936 in Proj4 definition
#> # A tibble: 224 × 3
#>    sample_id question        response         
#>    <chr>     <chr>           <chr>            
#>  1 1250462   Alkalinity      75               
#>  2 1250462   lake_TYPE       HA               
#>  3 1250462   Total_count     312              
#>  4 1250462   Percent_in_TDI4 99.3589743589744 
#>  5 1250462   N_TDI4          37               
#>  6 1250462   N2_TDI4         11.09            
#>  7 1250462   Max_TDI4        20.51            
#>  8 1250462   TDI4            64.6129032258064 
#>  9 1250462   eTDI4           45.3614293687833 
#> 10 1250462   EQR_TDI4        0.518126244744416
#> # … with 214 more rows
…
