Assessment Template
…
Test

This section tests if this assessment is usable using
assessment function.

#> Hello from hera, ...work in progress!
#> Hello from hera, ...work in progress!
#> Warning in showSRID(uprojargs, format = "PROJ", multiline = "NO", prefer_proj =
#> prefer_proj): Discarded datum OSGB_1936 in Proj4 definition
#> `summarise()` has grouped output by 'sample_id', 'label', 'total_count',
#> 'Saline'. You can override using the `.groups` argument.
#> `summarise()` has grouped output by 'sample_id', 'total_count'. You can
#> override using the `.groups` argument.
#> # A tibble: 44 × 3
#>    sample_id question response        
#>    <chr>     <chr>    <chr>           
#>  1 1101214   TDI4     106.556081081081
#>  2 1101214   Saline   9.75            
#>  3 1250462   TDI4     93.7011891891892
#>  4 1250462   Saline   6.24            
#>  5 1419451   TDI4     184.878666666667
#>  6 1419451   Saline   0               
#>  7 1564589   TDI4     243.097428571429
#>  8 1564589   Saline   16.84           
#>  9 1672942   TDI4     120.713833333333
#> 10 1672942   Saline   9.63            
#> # … with 34 more rows
…
