Combined aquatic plants • hera
…
Metadata required to assess each sample. (Excluding direct observations)

#> # A tibble: 6 × 3
#>   parameter         sample_id date_taken
#>   <chr>             <chr>     <chr>     
#> 1 River Macrophytes 777394    2018-08-03
#> 2 River Macrophytes 758757    2017-07-20
#> 3 River Macrophytes 724530    2015-09-08
#> 4 River Macrophytes 699722    2014-09-05
#> 5 River Macrophytes 628979    2011-09-02
#> 6 River Diatoms     609895    2011-02-10

Observe

#> # A tibble: 3,445 × 3
#>    question            response label                  
#>    <chr>               <chr>    <chr>                  
#>  1 percentagecoverband 3        Butomus umbellatus     
#>  2 percentagecoverband 1        Eleocharis palustris   
#>  3 percentagecoverband 4        Elodea nuttallii       
#>  4 percentagecoverband 1        Enteromorpha flexuosa  
#>  5 percentagecoverband 1        Juncus effusus         
#>  6 percentagecoverband 2        Myosotis scorpioides   
#>  7 percentagecoverband 1        Oenanthe crocata       
#>  8 percentagecoverband 6        Phalaris arundinacea   
#>  9 percentagecoverband 5        Potamogeton pectinatus 
#> 10 percentagecoverband 3        Potamogeton perfoliatus
#> # … with 3,435 more rows
…
