darleq • hera
…
Metadata required to assess each sample. (Excluding direct observations)

#> # A tibble: 6 × 3
#>   parameter         sample_id date_taken
#>   <chr>             <chr>     <chr>     
#> 1 River Macrophytes 777394    2018-08-03
#> 2 River Macrophytes 758757    2017-07-20
#> 3 River Macrophytes 724530    2015-09-08
#> 4 River Macrophytes 699722    2014-09-05
#> 5 River Macrophytes 628979    2011-09-02
#> 6 River Diatoms     609895    2011-02-10

Observe

#> # A tibble: 37 × 5
#>    question        response label                     result_id            units
#>    <chr>           <chr>    <chr>                     <chr>                <chr>
#>  1 Taxon abundance 8        Amphora pediculus         http://environment.… http…
#>  2 Taxon abundance 29       Halamphora veneta         http://environment.… http…
#>  3 Taxon abundance 2        Cocconeis pediculus       http://environment.… http…
#>  4 Taxon abundance 110      Cocconeis euglypta        http://environment.… http…
#>  5 Taxon abundance 5        Cocconeis lineata         http://environment.… http…
#>  6 Taxon abundance 1        Cocconeis pseudothumensis http://environment.… http…
#>  7 Taxon abundance 1        Craticula accomoda        http://environment.… http…
#>  8 Taxon abundance 4        Gomphonema parvulum       http://environment.… http…
#>  9 Taxon abundance 25       Melosira varians          http://environment.… http…
#> 10 Taxon abundance 13       Navicula gregaria         http://environment.… http…
#> # … with 27 more rows
…
Assessment

#> # A tibble: 5 × 3
#>   assesssment value level
#>   <chr>       <dbl> <int>
#> 1 high          0.8     1
#> 2 good          0.6     2
#> 3 moderate      0.4     3
#> 4 poor          0.2     4
#> 5 bad           0       5

Assess

#> # A tibble: 28 × 3
#>    sample_id question response         
#>    <chr>     <chr>    <chr>            
#>  1 724530    class    bad              
#>  2 724530    eqr      0                
#>  3 724530    status   classified       
#>  4 724530    level    1                
#>  5 609895    class    high             
#>  6 609895    eqr      0.987843693118549
#>  7 609895    status   classified       
#>  8 609895    level    1                
#>  9 609891    class    bad              
#> 10 609891    eqr      0                
#> # … with 18 more rows

Confidence

#> Calculating confidence...
#> # A tibble: 35 × 3
#>    sample_id question response
#>    <chr>     <chr>    <chr>   
#>  1 724530    high     0       
#>  2 724530    good     0.4     
#>  3 724530    moderate 2       
#>  4 724530    poor     9.6     
#>  5 724530    bad      88.1    
#>  6 609895    high     100     
#>  7 609895    good     0       
#>  8 609895    moderate 0       
#>  9 609895    poor     0       
#> 10 609895    bad      0       
#> # … with 25 more rows
…
