…
Update the catalogue of assessments to make them available.

    #> ✔ Setting active project to "/home/runner/work/hera/hera".
    #> ✔ Saving "catalogue" to "data/catalogue.rda".
    #> ☐ Document your data (see <https://r-pkgs.org/data.html>).

## Test

This section tests if this assessment is usable using
[`assess()`](https://ecodata1.github.io/hera/reference/assess.md)
function.

    #> Warning in CPL_crs_from_input(x): GDAL Message 1: +init=epsg:XXXX syntax is
    #> deprecated. It might return a CRS with a non-EPSG compliant axis order.
    #> # A tibble: 237 × 5
    #>    sample_id location_id question          response          parameter          
    #>    <chr>     <chr>       <chr>             <chr>             <chr>              
    #>  1 648750    8175        Alkalinity        121.9125401       Phytobenthos (diat…
    #>  2 648750    8175        lake_TYPE         HA                Phytobenthos (diat…
    #>  3 648750    8175        Total_count       304               Phytobenthos (diat…
    #>  4 648750    8175        Percent_in_TDI5LM 100               Phytobenthos (diat…
    #>  5 648750    8175        N_TDI5LM          18                Phytobenthos (diat…
    #>  6 648750    8175        N2_TDI5LM         4.12              Phytobenthos (diat…
    #>  7 648750    8175        Max_TDI5LM        43.09             Phytobenthos (diat…
    #>  8 648750    8175        TDI5LM            69.6299342105263  Phytobenthos (diat…
    #>  9 648750    8175        eTDI5LM           53.8155110499444  Phytobenthos (diat…
    #> 10 648750    8175        EQR_TDI5LM        0.526065204658927 Phytobenthos (diat…
    #> # ℹ 227 more rows
…
