DARLEQ3 • hera
…
#> ℹ Please use `"response"` instead of `.data$response`
#> This warning is displayed once every 8 hours.
#> Call `lifecycle::last_lifecycle_warnings()` to see where this warning was
#> generated.
#> Warning: Use of .data in tidyselect expressions was deprecated in tidyselect 1.2.0.
#> ℹ Please use `"TaxonId"` instead of `.data$TaxonId`
#> This warning is displayed once every 8 hours.
#> Call `lifecycle::last_lifecycle_warnings()` to see where this warning was
#> generated.
#> Warning: Use of .data in tidyselect expressions was deprecated in tidyselect 1.2.0.
#> ℹ Please use `"TaxonName"` instead of `.data$TaxonName`
#> This warning is displayed once every 8 hours.
#> Call `lifecycle::last_lifecycle_warnings()` to see where this warning was
#> generated.
#> # A tibble: 28 × 5
#>    sample_id location_id question        response          parameter            
#>    <chr>     <chr>       <chr>           <chr>             <chr>                
#>  1 12345     8175        Alkalinity      121.912540106952  Phytobenthos (diatom…
#>  2 12345     8175        lake_TYPE       HA                Phytobenthos (diatom…
#>  3 12345     8175        Total_count     12                Phytobenthos (diatom…
#>  4 12345     8175        Percent_in_TDI4 100               Phytobenthos (diatom…
#>  5 12345     8175        N_TDI4          1                 Phytobenthos (diatom…
#>  6 12345     8175        N2_TDI4         1                 Phytobenthos (diatom…
#>  7 12345     8175        Max_TDI4        100               Phytobenthos (diatom…
#>  8 12345     8175        TDI4            50                Phytobenthos (diatom…
#>  9 12345     8175        eTDI4           53.815511051024   Phytobenthos (diatom…
#> 10 12345     8175        EQR_TDI4        0.866091644841874 Phytobenthos (diatom…
#> # ℹ 18 more rows
…
#> ✔ Setting active project to '/home/runner/work/hera/hera'
#> ✔ Saving 'catalogue' to 'data/catalogue.rda'
#> • Document your data (see 'https://r-pkgs.org/data.html')

Test

This section tests if this assessment is usable using
assessment function.

#> Hello from hera, ...work in progress!
#> Hello from hera, ...work in progress!
#> Warning in CPL_crs_from_input(x): GDAL Message 1: +init=epsg:XXXX syntax is
#> deprecated. It might return a CRS with a non-EPSG compliant axis order.
#> # A tibble: 236 × 5
#>    sample_id location_id question        response          parameter            
#>    <chr>     <chr>       <chr>           <chr>             <chr>                
#>  1 1250462   8175        Alkalinity      121.912540106952  Phytobenthos (diatom…
#>  2 1250462   8175        lake_TYPE       HA                Phytobenthos (diatom…
#>  3 1250462   8175        Total_count     312               Phytobenthos (diatom…
#>  4 1250462   8175        Percent_in_TDI4 99.3589743589744  Phytobenthos (diatom…
#>  5 1250462   8175        N_TDI4          37                Phytobenthos (diatom…
#>  6 1250462   8175        N2_TDI4         11.09             Phytobenthos (diatom…
#>  7 1250462   8175        Max_TDI4        20.51             Phytobenthos (diatom…
#>  8 1250462   8175        TDI4            64.6129032258064  Phytobenthos (diatom…
#>  9 1250462   8175        eTDI4           53.815511051024   Phytobenthos (diatom…
#> 10 1250462   8175        EQR_TDI4        0.612969377026797 Phytobenthos (diatom…
#> # ℹ 226 more rows
…
