Request for Comment: Shared Design Principles for Creating and Deploying Regulatory Methods • hera
…
All data passed into hera must have these four variables. For ad hoc reporting, consultancies and students etc who don’t routinely record unique sample ids, a sample_id is generate if date_taken and location_id are provided.

These three variables are the minimal required, but in practice water_body_id maybe required for aggregation or simply location_description or NGR etc to help reference sites more easily. There is no restriction to the number of extra columns and these extra columns will be appended to outputs.

4.3.4 Observations

An observation consists of three variables question, response. The question variable identifies what is being determined such as alkalinity or depth etc. And the response is the value observed or recorded for that question.

Below is an example of diatom records, invert data and river flow in a shared input format.

# A tibble: 7,106 × 2
   question        response      
   <chr>           <fct>         
 1 Site altitude   7             
 2 Source altitude 210           
 3 nems alkalinity 118.8889      
 4 Mean alkalinity 118.8889      
 5 nems slope      2.6000        
 6 Slope           2.6000        
 7 Dist to source  36.4          
 8 Site NGR        NO 41452 15796
 9 Easting         341452        
10 Northing        715796        
# … with 7,096 more rows
…
# A tibble: 5 × 3
  question               response                label                  
  <chr>                  <fct>                   <fct>                  
1 Taxon name             Gammarus pulex          Gammarus pulex         
2 % Bed stability stable 5                       <NA>                   
3 Taxon abundance        30                      Oligochaeta            
4 Taxon name             Potamophylax latipennis Potamophylax latipennis
5 % Boulders/Cobbles     50                      <NA>                   

4.3.5 Predictors

Predictive variables such as temperature, altitude, slope are added as additional columns. There is a trade-off here as predictor variables are added for each row in the dataset, increasing the size of the dataset. However this does make data analysis straightforward and this repeated data can be easily compressed if size becomes an issue. For instance, nested JSON data or dataframes in R.

# A tibble: 7,106 × 3
   mean_alkalinity grid_reference slope
             <dbl> <chr>          <dbl>
 1              75 NO 41452 15796     2
 2              75 NO 41452 15796     2
 3              75 NO 41452 15796     2
 4              75 NO 41452 15796     2
 5              75 NO 41452 15796     2
 6              75 NO 41452 15796     2
 7              75 NO 41452 15796     2
 8              75 NO 41452 15796     2
 9              75 NO 41452 15796     2
10              75 NO 41452 15796     2
# … with 7,096 more rows
4.3.6 Indices, predictions, classification, reports

The outputs are all presented in a consistent format making outputs from different models instantly comparable and portable.

4.4 Data input

For students and consultancies requiring ad hoc usage, templates and documentation for preparing data will be provided.

For Agencies, data queries can be written to prepare outputs in the correct format.

For instance, here is a prototype function to pull data Environment Agency’s data.gov.uk web service and convert to the required hera input format.

environment_agency_data <- hera:::get_data(location_id = c(43378, 92751))
tibble(environment_agency_data)
# A tibble: 2,495 × 31
   location_id   location_descri… sample_id date_taken season parameter question
   <chr>         <chr>            <chr>     <chr>       <int> <chr>     <chr>   
 1 http://envir… TEST - 43378     771094    2019-02-28      4 River In… <NA>    
 2 http://envir… TEST - 43378     771094    2019-02-28      4 River In… <NA>    
 3 http://envir… TEST - 43378     771094    2019-02-28      4 River In… <NA>    
 4 http://envir… TEST - 43378     771094    2019-02-28      4 River In… <NA>    
 5 http://envir… TEST - 43378     771094    2019-02-28      4 River In… <NA>    
 6 http://envir… TEST - 43378     771094    2019-02-28      4 River In… <NA>    
 7 http://envir… TEST - 43378     771094    2019-02-28      4 River In… <NA>    
 8 http://envir… TEST - 43378     771094    2019-02-28      4 River In… <NA>    
 9 http://envir… TEST - 43378     771094    2019-02-28      4 River In… <NA>    
10 http://envir… TEST - 43378     771094    2019-02-28      4 River In… <NA>    
# … with 2,485 more rows, and 24 more variables: response <chr>, label <chr>,
#   result_id <chr>, units <chr>, latitude <dbl>, longitude <dbl>,
#   grid_reference <chr>, alkalinity <dbl>, river_width <int>,
#   mean_depth <int>, boulders_cobbles <int>, pebbles_gravel <int>, sand <int>,
#   silt_clay <int>, northing <int>, easting <int>, dist_from_source <dbl>,
#   altitude <int>, source_altitude <int>, slope <dbl>,
#   discharge_category <int>, water_body_id <chr>, water_body_type <chr>, …
…
