…
#### 4.3.4 Observations

An observation consists of three variables `question`, `response`. The
`question` variable identifies what is being determined such as
`alkalinity` or `depth` etc. And the `response` is the value observed or
recorded for that question.

Below is an example of diatom records, invert data and river flow in a
shared input format.

    # A tibble: 7,106 × 2
       question        response      
       <chr>           <chr>         
     1 Site altitude   7             
     2 Source altitude 210           
     3 nems alkalinity 118.8889      
     4 Mean alkalinity 118.8889      
     5 nems slope      2.6000        
     6 Slope           2.6000        
     7 Dist to source  36.4          
     8 Site NGR        NO 41452 15796
     9 Easting         341452        
    10 Northing        715796        
    # ℹ 7,096 more rows
…
#### 4.3.5 Predictors

Predictive variables such as `temperature`, `altitude`, `slope` are
added as additional columns. There is a trade-off here as predictor
variables are added for each row in the dataset, increasing the size of
the dataset. However this does make data analysis straightforward and
this repeated data can be easily compressed if size becomes an issue.
For instance, nested JSON data or dataframes in R.

    # A tibble: 7,106 × 3
       mean_alkalinity grid_reference slope
                 <dbl> <chr>          <dbl>
     1              75 NO 41452 15796     2
     2              75 NO 41452 15796     2
     3              75 NO 41452 15796     2
     4              75 NO 41452 15796     2
     5              75 NO 41452 15796     2
     6              75 NO 41452 15796     2
     7              75 NO 41452 15796     2
     8              75 NO 41452 15796     2
     9              75 NO 41452 15796     2
    10              75 NO 41452 15796     2
    # ℹ 7,096 more rows
…
