LEAPACS • hera
…
Observe

The survey method used should conform to CEN 14184 : 2003 Water quality – Guidance standard for the surveying of aquatic macrophytes in running waters.

A list of question and example responses that are collected one or more times per sample.

#> # A tibble: 51 × 3
#>    question            response label                     
#>    <chr>               <fct>    <fct>                     
#>  1 percentagecoverband 1        Cinclidotus fontinaloides 
#>  2 percentagecoverband 1        Mentha aquatica           
#>  3 percentagecoverband 1        Scirpus sylvaticus        
#>  4 percentagecoverband 1        Juncus articulatus        
#>  5 percentagecoverband 2        Glyceria maxima           
#>  6 percentagecoverband 1        Bryum capillare           
#>  7 percentagecoverband 2        Leptodictyum riparium     
#>  8 percentagecoverband 1        Vaucheria                 
#>  9 percentagecoverband 2        Platyhypnidium riparioides
#> 10 percentagecoverband 2        Dichodontium pellucidum   
#> # … with 41 more rows
…
#> # A tibble: 5 × 3
#>   assesssment value level
#>   <chr>       <dbl> <int>
#> 1 high          0.8     1
#> 2 good          0.6     2
#> 3 moderate      0.4     3
#> 4 poor          0.2     4
#> 5 bad           0       5

Assess

A function to compare observed against expected.

#> Calculating Assessment
#> # A tibble: 324 × 3
#>    sample_id question response                                
#>    <chr>     <chr>    <chr>                                   
#>  1 3256506   class    poor                                    
#>  2 3256506   eqr      0.78198695287295                        
#>  3 3256506   status   classified                              
#>  4 3256506   level    4                                       
#>  5 3201863   class    NA                                      
#>  6 3201863   eqr      NA                                      
#>  7 3201863   status   unclassifiable - no aquatic taxa present
#>  8 3201863   level    NA                                      
#>  9 3206202   class    NA                                      
#> 10 3206202   eqr      NA                                      
#> # … with 314 more rows

Confidence

Confidence of assessment

#> Calculating confidence...
#> # A tibble: 405 × 3
#>    sample_id question response
#>    <chr>     <chr>    <chr>   
#>  1 3256506   high     36.3    
#>  2 3256506   good     63.4    
#>  3 3256506   moderate 0.3     
#>  4 3256506   poor     0       
#>  5 3256506   bad      0       
#>  6 3201863   high     NA      
#>  7 3201863   good     NA      
#>  8 3201863   moderate NA      
#>  9 3201863   poor     NA      
#> 10 3201863   bad      NA      
#> # … with 395 more rows
…
