Macroinvertebrate Metrics • hera
…
After updating the catalogue, rebuild the package,
click on Build > Install and Restart menu or ‘Install and Restart’
button in the Build pane.

Test

This section tests if this assessment is usable using
assessment function.

#> Hello from hera, ...work in progress!
#> Hello from hera, ...work in progress!
#> Warning in CPL_crs_from_input(x): GDAL Message 1: +init=epsg:XXXX syntax is
#> deprecated. It might return a CRS with a non-EPSG compliant axis order.
#> # A tibble: 165 × 3
#>    sample_id question           response                         
#>    <chr>     <chr>              <chr>                            
#>  1 1017980   EPSI Score TL2     97.2877525074163                 
#>  2 1017980   EPSI Condition TL2 Minimally sedimented/unsedimented
#>  3 1101214   EPSI Score TL2     94.6979865771812                 
#>  4 1101214   EPSI Condition TL2 Minimally sedimented/unsedimented
#>  5 1250462   EPSI Score TL2     97.8168378529374                 
#>  6 1250462   EPSI Condition TL2 Minimally sedimented/unsedimented
#>  7 1419451   EPSI Score TL2     98.7470826679769                 
#>  8 1419451   EPSI Condition TL2 Minimally sedimented/unsedimented
#>  9 1457665   EPSI Score TL2     99.3310920874779                 
#> 10 1457665   EPSI Condition TL2 Minimally sedimented/unsedimented
#> # … with 155 more rows
…
