RICT • hera
…
#> Variables for the 'physical' model detected - applying relevant checks.
#> Grid reference values detected for 'GB' - applying relevant checks.
#> Success, all validation checks passed!
#> Variables for the 'physical' model detected - applying relevant checks.
#> Grid reference values detected for 'GB' - applying relevant checks.
#> Success, all validation checks passed!
#> Classifying...
#> Variables for the 'physical' model detected - applying relevant checks.
#> Grid reference values detected for 'GB' - applying relevant checks.
#> Success, all validation checks passed!
#> Classifying...
#> Variables for the 'physical' model detected - applying relevant checks.
#> Grid reference values detected for 'GB' - applying relevant checks.
#> Success, all validation checks passed!
#> # A tibble: 523 × 5
#>    location_id sample_id question                 response         parameter    
#>    <chr>       <chr>     <chr>                    <chr>            <chr>        
#>  1 8175        1101214   RICT Reference WHPT ASPT 6.72224953754603 RICT Predict…
#>  2 8175        1250462   RICT Reference WHPT ASPT 6.72224953754603 RICT Predict…
#>  3 8175        1419451   RICT Reference WHPT ASPT 6.72224953754603 RICT Predict…
#>  4 8175        1457665   RICT Reference WHPT ASPT 6.72224953754603 RICT Predict…
#>  5 8175        1564589   RICT Reference WHPT ASPT 6.72224953754603 RICT Predict…
#>  6 8175        1672942   RICT Reference WHPT ASPT 6.72224953754603 RICT Predict…
#>  7 8175        1800006   RICT Reference WHPT ASPT 6.72224953754603 RICT Predict…
#>  8 8175        1912578   RICT Reference WHPT ASPT 6.72224953754603 RICT Predict…
#>  9 8175        2031713   RICT Reference WHPT ASPT 6.72224953754603 RICT Predict…
#> 10 8175        213268    RICT Reference WHPT ASPT 6.72224953754603 RICT Predict…
#> # … with 513 more rows
…
#> Variables for the 'physical' model detected - applying relevant checks.
#> Grid reference values detected for 'GB' - applying relevant checks.
#> Success, all validation checks passed!
#> Variables for the 'physical' model detected - applying relevant checks.
#> Grid reference values detected for 'GB' - applying relevant checks.
#> Success, all validation checks passed!
#> Classifying...
#> Variables for the 'physical' model detected - applying relevant checks.
#> Grid reference values detected for 'GB' - applying relevant checks.
#> Success, all validation checks passed!
#> Classifying...
#> Variables for the 'physical' model detected - applying relevant checks.
#> Grid reference values detected for 'GB' - applying relevant checks.
#> Success, all validation checks passed!
#> # A tibble: 523 × 5
#>    location_id sample_id question                 response         parameter    
#>    <chr>       <chr>     <chr>                    <chr>            <chr>        
#>  1 8175        1101214   RICT Reference WHPT ASPT 6.72224953754603 RICT Predict…
#>  2 8175        1250462   RICT Reference WHPT ASPT 6.72224953754603 RICT Predict…
#>  3 8175        1419451   RICT Reference WHPT ASPT 6.72224953754603 RICT Predict…
#>  4 8175        1457665   RICT Reference WHPT ASPT 6.72224953754603 RICT Predict…
#>  5 8175        1564589   RICT Reference WHPT ASPT 6.72224953754603 RICT Predict…
#>  6 8175        1672942   RICT Reference WHPT ASPT 6.72224953754603 RICT Predict…
#>  7 8175        1800006   RICT Reference WHPT ASPT 6.72224953754603 RICT Predict…
#>  8 8175        1912578   RICT Reference WHPT ASPT 6.72224953754603 RICT Predict…
#>  9 8175        2031713   RICT Reference WHPT ASPT 6.72224953754603 RICT Predict…
#> 10 8175        213268    RICT Reference WHPT ASPT 6.72224953754603 RICT Predict…
#> # … with 513 more rows
…
